<?xml version="1.0" encoding="UTF-8" standalone="no"?>
<!-- Created with Inkscape (http://www.inkscape.org/) -->

<svg
   xmlns:dc="http://purl.org/dc/elements/1.1/"
   xmlns:cc="http://creativecommons.org/ns#"
   xmlns:rdf="http://www.w3.org/1999/02/22-rdf-syntax-ns#"
   xmlns:svg="http://www.w3.org/2000/svg"
   xmlns="http://www.w3.org/2000/svg"
   xmlns:sodipodi="http://sodipodi.sourceforge.net/DTD/sodipodi-0.dtd"
   xmlns:inkscape="http://www.inkscape.org/namespaces/inkscape"
   width="744.09448819"
   height="1052.3622047"
   id="svg2"
   version="1.1"
   inkscape:version="0.47pre4 r22446"
   sodipodi:docname="iconography.svg">
  <defs
     id="defs4">
    <marker
       inkscape:stockid="Arrow2Lend"
       orient="auto"
       refY="0.0"
       refX="0.0"
       id="Arrow2Lend"
       style="overflow:visible;">
      <path
         id="path4887"
         style="font-size:12.0;fill-rule:evenodd;stroke-width:0.62500000;stroke-linejoin:round;"
         d="M 8.7185878,4.0337352 L -2.2072895,0.016013256 L 8.7185884,-4.0017078 C 6.9730900,-1.6296469 6.9831476,1.6157441 8.7185878,4.0337352 z "
         transform="scale(1.1) rotate(180) translate(1,0)" />
    </marker>
    <marker
       inkscape:stockid="Arrow1Lend"
       orient="auto"
       refY="0.0"
       refX="0.0"
       id="Arrow1Lend"
       style="overflow:visible;">
      <path
         id="path4869"
         d="M 0.0,0.0 L 5.0,-5.0 L -12.5,0.0 L 5.0,5.0 L 0.0,0.0 z "
         style="fill-rule:evenodd;stroke:#000000;stroke-width:1.0pt;marker-start:none;"
         transform="scale(0.8) rotate(180) translate(12.5,0)" />
    </marker>
    <inkscape:perspective
       sodipodi:type="inkscape:persp3d"
       inkscape:vp_x="0 : 526.18109 : 1"
       inkscape:vp_y="0 : 1000 : 0"
       inkscape:vp_z="744.09448 : 526.18109 : 1"
       inkscape:persp3d-origin="372.04724 : 350.78739 : 1"
       id="perspective10" />
    <inkscape:perspective
       id="perspective2825"
       inkscape:persp3d-origin="299.08783 : 176.88704 : 1"
       inkscape:vp_z="598.17566 : 265.33057 : 1"
       inkscape:vp_y="0 : 1000 : 0"
       inkscape:vp_x="0 : 265.33057 : 1"
       sodipodi:type="inkscape:persp3d" />
    <inkscape:perspective
       id="perspective3192"
       inkscape:persp3d-origin="247.1835 : 84.183334 : 1"
       inkscape:vp_z="494.367 : 126.275 : 1"
       inkscape:vp_y="0 : 1000 : 0"
       inkscape:vp_x="0 : 126.275 : 1"
       sodipodi:type="inkscape:persp3d" />
    <style
       id="style3375"
       type="text/css">
   
    .fil0 {fill:#1B1C1F}
    .fil1 {fill:#1B1C1F;fill-rule:nonzero}
   
  </style>
    <inkscape:perspective
       id="perspective3389"
       inkscape:persp3d-origin="167.35146 : 111.56764 : 1"
       inkscape:vp_z="334.70291 : 167.35146 : 1"
       inkscape:vp_y="0 : 1000 : 0"
       inkscape:vp_x="0 : 167.35146 : 1"
       sodipodi:type="inkscape:persp3d" />
    <inkscape:perspective
       id="perspective3417"
       inkscape:persp3d-origin="250 : 166.66667 : 1"
       inkscape:vp_z="500 : 250 : 1"
       inkscape:vp_y="0 : 1000 : 0"
       inkscape:vp_x="0 : 250 : 1"
       sodipodi:type="inkscape:persp3d" />
    <inkscape:perspective
       id="perspective3436"
       inkscape:persp3d-origin="64 : 42.666667 : 1"
       inkscape:vp_z="128 : 64 : 1"
       inkscape:vp_y="0 : 1000 : 0"
       inkscape:vp_x="0 : 64 : 1"
       sodipodi:type="inkscape:persp3d" />
  </defs>
  <sodipodi:namedview
     id="base"
     pagecolor="#ffffff"
     bordercolor="#666666"
     borderopacity="1.0"
     inkscape:pageopacity="0.0"
     inkscape:pageshadow="2"
     inkscape:zoom="2.2041026"
     inkscape:cx="372.04724"
     inkscape:cy="526.18109"
     inkscape:document-units="px"
     inkscape:current-layer="layer1"
     showgrid="false"
     showguides="true"
     inkscape:guide-bbox="true"
     inkscape:snap-global="false"
     inkscape:window-width="1397"
     inkscape:window-height="845"
     inkscape:window-x="64"
     inkscape:window-y="50"
     inkscape:window-maximized="0">
    <sodipodi:guide
       orientation="0,1"
       position="154.28571,848.57143"
       id="guide3441" />
    <sodipodi:guide
       orientation="0,1"
       position="208.57143,1197.1429"
       id="guide3443" />
  </sodipodi:namedview>
  <metadata
     id="metadata7">
    <rdf:RDF>
      <cc:Work
         rdf:about="">
        <dc:format>image/svg+xml</dc:format>
        <dc:type
           rdf:resource="http://purl.org/dc/dcmitype/StillImage" />
        <dc:title></dc:title>
      </cc:Work>
    </rdf:RDF>
  </metadata>
  <g
     inkscape:label="Layer 1"
     inkscape:groupmode="layer"
     id="layer1">
    <g
       id="g4264"
       transform="matrix(-0.0209203,0.56244983,-0.5765446,-0.02144455,578.77702,1465.9609)" />
    <g
       id="g3066"
       transform="matrix(0.69202347,0,0,0.69202347,184.32272,58.312735)"
       inkscape:export-filename="/media/public/privateProperty/rg5656.png"
       inkscape:export-xdpi="300.29999"
       inkscape:export-ydpi="300.29999">
      <path
         id="path4268"
         style="fill:#010000;fill-opacity:1;stroke:#000000;stroke-width:0.08755034;stroke-opacity:1"
         d="m 201.56377,676.7922 c 0.39972,0 0.84992,-0.14033 1.00937,-0.25517 0.17763,-0.12794 0.61639,-0.19659 1.13302,-0.17739 0.46373,0.0174 0.84507,-0.0209 0.84745,-0.0847 0.003,-0.0638 -0.40055,-1.54045 -0.89537,-3.28155 -0.49482,-1.74104 -0.89899,-3.1841 -0.89814,-3.20684 0.001,-0.0227 0.49058,-0.0233 1.08831,0 l 1.08677,0.0407 0.34332,0.57353 c 0.18884,0.31538 0.49835,0.81472 0.68781,1.10963 0.18945,0.2949 0.49854,0.77738 0.68685,1.07222 0.1883,0.29486 0.49732,0.77738 0.68671,1.07223 0.8706,1.35561 1.05281,1.64476 1.37292,2.17901 0.32318,0.53937 0.3758,0.56765 0.96152,0.51744 3.81094,-0.32673 10.52724,-0.61536 13.39316,-0.5755 1.8976,0.0262 3.45184,0.006 3.45384,-0.0506 0.002,-0.0541 -0.25376,-1.00043 -0.5684,-2.10303 -0.50498,-1.76955 -7.24974,-15.52185 -7.41676,-15.77481 -0.16702,-0.2529 -0.70021,-0.67347 -1.18487,-0.93452 l -0.88121,-0.47468 0.52462,-0.25243 c 0.28853,-0.13881 0.52582,-0.28472 0.52728,-0.32423 0.005,-0.13026 -0.61702,-1.49367 -1.25685,-2.7555 -0.34613,-0.68266 -0.62656,-1.31552 -0.62319,-1.40634 0.004,-0.10909 0.47641,-0.1476 1.39195,-0.11357 1.53002,0.057 1.62558,0.11339 2.42806,1.43608 0.17868,0.29444 0.47987,0.77668 0.66933,1.07158 0.18947,0.29491 0.49898,0.79426 0.68781,1.10964 l 0.34334,0.57352 1.12297,0.0436 c 1.29081,0.0506 1.77236,0.16948 1.76244,0.43605 -0.004,0.10338 0.20365,0.23981 0.4611,0.30329 0.36748,0.0905 0.42015,0.14422 0.24507,0.24981 -0.12267,0.074 -0.33737,0.13125 -0.47711,0.1273 -0.13976,-0.006 -0.25755,0.0858 -0.26178,0.19937 -0.009,0.24435 -0.45441,0.36949 -1.22295,0.34378 l -0.5554,-0.0186 0.29384,0.42214 c 0.35432,0.509 0.91243,1.36224 1.37834,2.10722 0.18863,0.30165 1.87141,2.92864 2.06054,3.21674 0.18913,0.28815 1.18455,1.85641 1.37369,2.1445 0.18913,0.2881 1.08812,1.60747 1.4686,1.54673 0.71684,-0.11444 5.25962,-0.0681 5.8088,0.0593 0.36069,0.0837 0.50423,0.19653 0.497,0.39085 -0.007,0.18861 0.13475,0.30886 0.45793,0.38851 0.36748,0.0906 0.42015,0.14422 0.24506,0.24981 -0.12266,0.0739 -0.33736,0.13126 -0.47711,0.1273 -0.18255,-0.006 -0.25858,0.11374 -0.27005,0.42215 -0.0135,0.36471 0.0544,0.44663 0.45211,0.54466 0.36748,0.0905 0.42016,0.14422 0.24507,0.24982 -0.12267,0.0739 -0.33737,0.13124 -0.47711,0.12729 -0.15126,-0.006 -0.25832,0.10664 -0.26455,0.27408 -0.0148,0.39706 -0.38507,0.44727 -2.68384,0.36413 l -2.01352,-0.0728 0.22447,0.34477 c 0.12346,0.18966 0.37808,0.58603 0.56583,0.88082 0.18774,0.29485 0.49636,0.77732 0.68582,1.07223 0.18946,0.2949 1.87266,2.93869 2.0615,3.25414 l 0.34333,0.57352 2.64707,0.0985 c 1.45589,0.0541 3.36295,0.19501 4.2379,0.31288 3.97917,0.53594 6.67491,1.68531 5.93839,2.53186 -0.95431,1.09689 -5.02997,1.68252 -10.33734,1.48535 l -2.64709,-0.0984 -0.38498,0.54641 c -0.21175,0.30055 -2.0867,2.81205 -2.29755,3.09201 -0.21084,0.28 -0.55445,0.73828 -0.76358,1.01829 -0.20913,0.28007 -0.49248,0.65643 -0.62969,0.83637 l -0.24946,0.3272 2.01337,0.0769 c 2.2986,0.0879 2.66413,0.16547 2.64936,0.56253 -0.006,0.16744 0.0923,0.28595 0.24346,0.29299 0.13966,0.007 0.34951,0.0795 0.46633,0.16237 0.16677,0.11828 0.11026,0.16791 -0.26294,0.23092 -0.40386,0.0682 -0.47776,0.1448 -0.49132,0.50952 -0.0115,0.30846 0.0555,0.43261 0.23795,0.44105 0.13965,0.007 0.3495,0.0795 0.46633,0.16237 0.16677,0.11834 0.11025,0.16797 -0.26295,0.23097 -0.32819,0.0552 -0.4785,0.16482 -0.48552,0.35343 -0.007,0.19432 -0.15875,0.29619 -0.52466,0.3528 -0.55712,0.0862 -5.09079,-0.20502 -5.79715,-0.37234 -0.37492,-0.0888 -0.48297,-0.0338 -0.81492,0.41702 -0.21047,0.28572 -4.37703,5.82079 -4.58754,6.10756 -0.51996,0.70832 -1.13991,1.51781 -1.53108,1.99906 l -0.32438,0.39916 0.55526,0.0227 c 0.76832,0.0315 1.20311,0.18932 1.19402,0.43367 -0.004,0.11356 0.10659,0.21182 0.24624,0.21828 0.13965,0.007 0.3495,0.0795 0.46633,0.16238 0.16677,0.11827 0.11025,0.1679 -0.26294,0.23091 -0.26145,0.0442 -0.47851,0.16482 -0.48235,0.26814 -0.01,0.26657 -0.49898,0.34965 -1.78997,0.30398 l -1.12312,-0.0396 -0.38499,0.54641 c -0.21175,0.30055 -1.20878,1.64016 -1.37386,1.87172 -0.54201,0.76044 -1.02981,1.28812 -1.35032,1.46079 -0.52752,0.28415 -2.71052,0.0879 -2.69823,-0.2426 0.003,-0.0801 0.32933,-0.68156 0.72523,-1.33659 0.73179,-1.21086 1.45322,-2.5243 1.45806,-2.6545 0.002,-0.0396 -0.22431,-0.20263 -0.50174,-0.36257 l -0.50441,-0.29066 0.91403,-0.40788 c 0.50272,-0.22434 1.06569,-0.60413 1.25103,-0.84394 0.18534,-0.23987 7.93308,-13.45309 8.56813,-15.18029 0.39567,-1.07612 0.72105,-2.00086 0.72306,-2.05497 0.002,-0.0541 -1.54623,-0.19222 -3.44055,-0.30689 -2.86097,-0.17314 -9.53727,-0.95989 -13.3134,-1.56884 -0.5804,-0.0936 -0.63493,-0.0693 -0.9971,0.4446 -0.21071,0.29898 -0.55563,0.77273 -0.76647,1.05268 -0.21084,0.28001 -0.55491,0.73822 -0.7646,1.0183 -0.20969,0.28001 -0.55376,0.73822 -0.76461,1.01823 -0.89296,1.18585 -1.16685,1.5565 -1.53239,2.07377 l -0.38612,0.54635 -1.08647,-0.0402 c -0.59756,-0.0221 -1.08578,-0.059 -1.08494,-0.0817 10e-4,-0.0227 0.51109,-1.43183 1.13389,-3.13133 0.62279,-1.69945 1.13429,-3.14215 1.13667,-3.20591 0.003,-0.0638 -0.3751,-0.13009 -0.83882,-0.14737 -0.51663,-0.0192 -0.94908,-0.12031 -1.11671,-0.26105 -0.15048,-0.12636 -0.5894,-0.29013 -0.98796,-0.3205 l -0.73499,-0.0198 0.72931,-0.0692 c 0.70876,-0.0673 0.12514,0.0858 0.22428,-0.16854 l -0.50502,-0.0993 0.50977,-0.0285 c -0.0667,-0.18966 0.34153,-0.0704 -0.21214,-0.1579 l -0.72192,-0.12939 0.73408,0.0442 z" />
      <path
         id="path4270"
         style="fill:#000000;fill-opacity:1;stroke:#58615f;stroke-width:0.08755034;stroke-opacity:1"
         d="m 244.40805,678.07927 c -1.5e-4,-6e-5 -0.002,-6e-5 -0.002,-6e-5 -2.9e-4,0 -0.002,-1.1e-4 -0.002,-1.1e-4 -1.5e-4,0 -0.002,0 -0.002,-6e-5 -0.001,-0.006 -0.002,-0.0122 -0.003,-0.0163 -10e-4,0 -0.004,-0.008 -0.005,-0.01 -0.003,-0.007 -0.005,-0.0157 -0.008,-0.0209 -5.8e-4,0 -0.004,-0.008 -0.005,-0.01 -0.005,-0.006 -0.0129,-0.0162 -0.0173,-0.0215 -5.8e-4,0 -0.004,-0.006 -0.005,-0.006 -5.8e-4,0 -0.003,-0.006 -0.003,-0.006 -0.0113,-0.01 -0.0288,-0.0215 -0.0425,-0.0273 -0.003,0 -0.0107,-0.006 -0.0143,-0.006 -0.001,-6e-5 -0.003,-1.1e-4 -0.003,-1.1e-4 -0.003,5e-5 -0.0115,0 -0.0145,0 -0.003,0 -0.0109,-0.006 -0.0143,-0.007 -1.5e-4,0 -0.002,-6e-5 -0.002,-6e-5 -5.8e-4,0 -0.001,-6e-5 -0.002,-6e-5 -1.6e-4,0 -0.002,-5e-5 -0.002,-5e-5 -5.8e-4,-6e-5 -0.003,-1.2e-4 -0.003,-1.2e-4 -0.003,0 -0.0118,0.006 -0.0147,0.006 -0.0251,0.006 -0.0517,0.0128 -0.0717,0.028 -5.9e-4,0 -0.005,0.006 -0.006,0.006 -0.006,0.006 -0.0129,0.0139 -0.0188,0.0204 -9e-5,0 -0.002,0 -0.002,-6e-5 -0.001,0 -0.003,0.006 -0.003,0.006 -0.0153,0.0204 -0.027,0.0489 -0.0318,0.0759 -5.9e-4,0.006 -0.003,0.0104 -0.004,0.0139 -8e-5,0 -1.4e-4,0.006 -1.4e-4,0.006 0,6e-5 -6e-5,0 -6e-5,0 -6e-5,0 -1e-4,0 -1.3e-4,0.006 1e-5,0 -8e-5,0 -6e-5,0 0.001,0.006 0.003,0.0116 0.003,0.0145 -6e-5,0.006 -3e-4,0.0122 -5.8e-4,0.0163 -3e-5,0 -1.5e-4,0.006 -1.5e-4,0.006 5.8e-4,0.006 0.004,0.011 0.005,0.0145 0.005,0.0151 0.0135,0.0343 0.0217,0.0471 0.001,0 0.005,0.006 0.005,0.006 5.8e-4,0 0.003,0.006 0.003,0.007 0.003,0.006 0.0104,0.0116 0.0139,0.0151 5.8e-4,0 0.005,0.006 0.005,0.006 0.002,0 0.007,0.006 0.009,0.006 0.005,0.006 0.0116,0.009 0.0177,0.0116 0.003,0 0.008,0.006 0.0107,0.006 0.003,0 0.009,0.006 0.0125,0.006 0.004,0 0.0146,0.006 0.0197,0.006 0.005,0 0.0135,0 0.0181,0 0.005,0 0.0148,0 0.0199,0 0.009,0 0.0185,0 0.0273,-0.006 0.009,0 0.0216,-0.009 0.0295,-0.0134 3.1e-4,0 0.002,0 0.002,0 0.003,0 0.006,-0.006 0.007,-0.006 0.002,0 0.009,-0.006 0.011,-0.006 5.8e-4,0 0.003,-0.006 0.003,-0.006 0.001,0 0.005,-0.006 0.006,-0.006 0.002,0 0.008,-0.008 0.009,-0.009 5.9e-4,0 0.005,-0.006 0.006,-0.007 10e-4,0 0.003,-0.006 0.004,-0.006 0.001,0 0.005,-0.008 0.006,-0.009 0.002,0 0.004,-0.008 0.006,-0.011 0.004,-0.008 0.0106,-0.0209 0.0138,-0.0303 0.003,-0.009 0.005,-0.0209 0.007,-0.0303 4.5e-4,-0.006 5.8e-4,-0.0157 5.8e-4,-0.0209 9e-5,-0.006 5.8e-4,-0.0139 5.8e-4,-0.0192 10e-6,0 1.5e-4,-0.009 4.5e-4,-0.011 2e-5,0 1.4e-4,-0.006 1.4e-4,-0.006 5e-5,0 5e-5,0 1.3e-4,-0.006 3e-5,0 5e-5,0 6e-5,0 z m -0.0548,1.47215 c -1.5e-4,0 -0.002,-6e-5 -0.002,-6e-5 -3.1e-4,6e-5 -0.002,-6e-5 -0.002,-6e-5 -1.6e-4,0 -0.002,0 -0.002,-6e-5 -5.9e-4,-0.006 -0.002,-0.011 -0.003,-0.0145 -5.8e-4,0 -0.004,-0.009 -0.005,-0.0116 -0.003,-0.007 -0.005,-0.0139 -0.008,-0.0198 -5.8e-4,0 -0.004,-0.009 -0.005,-0.0116 -0.005,-0.007 -0.0129,-0.0168 -0.0173,-0.0215 -0.001,0 -0.004,-0.006 -0.005,-0.006 -5.9e-4,0 -0.003,-0.006 -0.003,-0.006 -0.0113,-0.01 -0.0288,-0.0209 -0.0425,-0.0273 -0.003,0 -0.0107,-0.006 -0.0143,-0.006 -10e-4,-6e-5 -0.003,-1.2e-4 -0.003,-1.2e-4 -0.003,6e-5 -0.0115,0 -0.0145,0 -0.003,0 -0.0109,-0.006 -0.0143,-0.006 -1.5e-4,-6e-5 -0.002,-6e-5 -0.002,-6e-5 -5.9e-4,0 -0.001,-6e-5 -0.002,-1.1e-4 -1.5e-4,0 -0.002,-6e-5 -0.002,-6e-5 -5.8e-4,-6e-5 -0.003,-1.2e-4 -0.003,-1.2e-4 -0.003,0 -0.0117,0.006 -0.0147,0.006 -0.0251,0.006 -0.0517,0.0128 -0.0717,0.028 -5.8e-4,0 -0.005,0.006 -0.006,0.006 -0.006,0.006 -0.0129,0.0139 -0.0188,0.0204 -4.5e-4,0 -0.003,0 -0.003,0.006 -1.5e-4,0 -0.002,0 -0.002,0 -0.0154,0.0204 -0.027,0.0489 -0.0318,0.0759 -5.9e-4,0.006 -0.003,0.0122 -0.004,0.0157 -3e-5,0 -1e-4,0 -1.1e-4,0.006 -2e-5,0 -4e-5,0 -6e-5,0 -8e-5,0 -1.6e-4,0.006 -1.6e-4,0.006 5.9e-4,0.006 0.003,0.0128 0.003,0.0163 -6e-5,0.006 -1.6e-4,0.011 -5.8e-4,0.0145 -2e-5,0 -1.4e-4,0.006 -1.6e-4,0.006 5.8e-4,0.006 0.004,0.0122 0.005,0.0163 0.005,0.0151 0.0135,0.0344 0.0218,0.0471 10e-4,0 0.005,0.006 0.005,0.006 0.001,0 0.003,0.006 0.003,0.006 0.003,0.006 0.0104,0.0116 0.0139,0.0151 5.9e-4,0 0.005,0.006 0.005,0.007 0.002,0 0.007,0.006 0.009,0.006 0.005,0.006 0.012,0.007 0.0178,0.0105 0.003,0 0.008,0.006 0.0107,0.006 0.003,0 0.009,0.006 0.0124,0.007 0.004,0 0.0146,0.006 0.0198,0.006 0.005,0 0.0135,0 0.0181,0 0.005,0 0.0148,0 0.0199,0 0.008,0 0.0188,0 0.0273,-0.006 0.009,0 0.0217,-0.011 0.0295,-0.0151 0.002,0 0.005,0 0.007,-0.006 4.6e-4,0 0.002,0 0.002,0 0.002,0 0.009,-0.006 0.011,-0.006 5.8e-4,0 0.003,-0.006 0.004,-0.007 0.001,0 0.005,-0.006 0.006,-0.006 0.002,0 0.008,-0.008 0.009,-0.009 5.8e-4,0 0.005,-0.006 0.006,-0.006 5.8e-4,0 0.003,-0.006 0.003,-0.006 0.001,0 0.005,-0.009 0.006,-0.011 0.002,0 0.004,-0.007 0.006,-0.009 0.004,-0.008 0.0106,-0.0209 0.0138,-0.0303 0.003,-0.009 0.005,-0.0209 0.007,-0.0303 4.6e-4,-0.006 5.8e-4,-0.0157 5.8e-4,-0.0209 1e-4,-0.006 0.001,-0.0151 5.8e-4,-0.0209 2e-5,0 1.1e-4,-0.008 3.1e-4,-0.01 2e-5,0 3e-4,-0.006 3e-4,-0.007 1e-5,0 2e-5,0 5e-5,0 5e-5,0 4e-5,0 6e-5,0 2e-5,0 9e-5,0 6e-5,0 z m -0.88055,-0.77785 c -0.0262,-0.1295 -0.17898,-0.20257 -0.44683,-0.21258 -0.30261,-0.011 -0.45714,0.0649 -0.46323,0.22853 -0.006,0.16359 0.14237,0.25098 0.44498,0.2622 0.30261,0.011 0.45715,-0.0648 0.46324,-0.22846 4.5e-4,-0.0122 0.002,-0.0262 0.001,-0.0367 6e-5,0 1.5e-4,-0.006 1.5e-4,-0.006 -1e-5,0 4e-5,0 6e-5,0 3e-5,0 2e-5,0 6e-5,0 1e-5,0 7e-5,0 5e-5,0 -1.4e-4,0 3.1e-4,0 1.3e-4,-0.006 z m -0.55601,-0.44308 c -5.8e-4,5e-5 -0.005,0 -0.005,0 -5.8e-4,5e-5 -0.003,-1.2e-4 -0.003,-1.2e-4 -1.5e-4,0 -0.002,-6e-5 -0.002,-6e-5 -3.1e-4,0 -0.002,-6e-5 -0.002,-6e-5 -1.5e-4,0 -0.002,-5e-5 -0.002,-5e-5 -0.0668,-0.028 -0.39789,-0.0685 -0.88588,-0.0988 l -1.24721,-0.0769 -0.0211,0.5677 -0.0213,0.57247 1.24949,0.0157 c 0.48888,0.006 0.82214,-0.0116 0.89082,-0.0344 1.5e-4,0 0.002,6e-5 0.002,6e-5 3e-4,5e-5 0.002,5e-5 0.002,5e-5 1.5e-4,0 0.002,6e-5 0.002,6e-5 4.6e-4,6e-5 0.003,1.2e-4 0.003,1.8e-4 1e-4,0 0.005,-0.006 0.006,-0.006 -0.001,0 -0.005,-0.006 -0.005,-0.006 -5.9e-4,0 -0.003,-1.8e-4 -0.003,-1.8e-4 -0.01,-0.006 -0.0307,-0.0128 -0.0609,-0.018 -0.31933,-0.0584 -0.41053,-0.16563 -0.39942,-0.46449 0.0111,-0.29887 0.10991,-0.39585 0.4327,-0.43035 0.0287,-0.006 0.0515,-0.008 0.062,-0.0122 4.5e-4,0 0.003,6e-5 0.003,1.2e-4 4.5e-4,0 0.004,-0.006 0.006,-0.007 2e-5,0 1.3e-4,-0.006 1.5e-4,-0.006 z m -2.29912,-0.1931 -1.2493,-0.0209 c -1.39617,-0.025 -1.93522,0.10594 -1.94919,0.48153 -0.005,0.13946 0.14113,0.32191 0.32552,0.40557 0.18438,0.0837 0.89632,0.18384 1.58239,0.22265 l 1.24739,0.0721 0.0216,-0.58212 0.0215,-0.57894 z" />
      <g
         transform="matrix(0.89215314,0,0,0.89215314,262.68189,651.36718)"
         id="g4628">
        <path
           style="fill:#1b1c1f"
           id="path4630"
           class="fil0"
           d="m 24.1857,22.4995 c -5.44655,3.14453 2.86367,18.724 8.82368,15.283 1.0584,1.83322 4.46756,7.73807 5.52595,9.57124 -2.51464,1.45186 -4.64315,2.36711 -7.55853,0.700539 -8.09458,-4.6273 -17.0046,-20.0543 -16.7511,-29.2558 0.08805,-3.19599 1.971,-4.44824 4.43399,-5.87024 1.0584,1.83316 4.46756,7.73801 5.52595,9.57124 z" />
        <path
           style="fill:#1b1c1f"
           id="path4632"
           class="fil0"
           d="m 26.4704,22.2399 c -0.588492,0.339781 -1.3458,0.136973 -1.68564,-0.451581 l -5.2095,-9.02316 c -0.339842,-0.588616 -0.137035,-1.34586 0.451519,-1.6857 l 2.73799,-1.58075 c 0.588554,-0.339842 1.34598,-0.13685 1.68576,0.451704 l 5.2095,9.0231 c 0.339781,0.588492 0.136912,1.3458 -0.451581,1.68558 l -2.73805,1.58081 z" />
        <path
           style="fill:#1b1c1f"
           id="path4634"
           class="fil0"
           d="m 40.7023,46.8904 c -0.588492,0.339781 -1.3458,0.136973 -1.68564,-0.451642 l -5.2095,-9.02316 c -0.339842,-0.588554 -0.137035,-1.34586 0.451519,-1.68564 l 2.73799,-1.58081 c 0.588554,-0.339781 1.34598,-0.136788 1.68576,0.451704 l 5.2095,9.0231 c 0.339781,0.588554 0.136912,1.34586 -0.451581,1.68564 l -2.73805,1.58081 z" />
      </g>
      <path
         style="fill:#1b1c1f;fill-rule:nonzero"
         class="fil1"
         d="m 288.68004,651.36718 3.8e-4,0 0,0.006 c 7.18181,1.1e-4 13.68117,2.90844 18.38237,7.60972 4.701,4.70106 7.60924,11.2 7.60945,18.38157 l 0.006,0 0,8.2e-4 0,3.9e-4 -0.006,0 c -1.1e-4,7.18186 -2.90845,13.68117 -7.60973,18.38237 -4.70112,4.701 -11.20009,7.60924 -18.38165,7.60945 l 0,0.006 -8.3e-4,0 -3.8e-4,0 0,-0.006 c -7.18181,-1.1e-4 -13.68108,-2.90845 -18.38228,-7.60973 -4.70101,-4.70112 -7.60924,-11.20009 -7.60945,-18.38165 l -0.006,0 0,-8.3e-4 0,-3.8e-4 0.006,0 c 1.1e-4,-7.18181 2.90844,-13.68108 7.60972,-18.38228 4.70106,-4.70101 11.20001,-7.60924 18.38157,-7.60945 l 0,-0.006 8.3e-4,0 z m 3.8e-4,3.10094 0,0.006 -3.8e-4,0 -8.3e-4,0 0,-0.006 c -6.31571,1.6e-4 -12.03863,2.56518 -16.18482,6.71133 -4.14642,4.14637 -6.71155,9.86953 -6.7116,16.18553 l 0.006,0 0,3.8e-4 0,8.3e-4 -0.006,0 c 1.6e-4,6.31576 2.56518,12.03862 6.71133,16.18491 4.14637,4.14642 9.86953,6.71155 16.18553,6.7116 l 0,-0.006 3.8e-4,0 8.3e-4,0 0,0.006 c 6.31576,-1.6e-4 12.03862,-2.56518 16.1849,-6.71133 4.14643,-4.14637 6.71156,-9.86953 6.71161,-16.18562 l -0.006,0 0,-3.8e-4 0,-8.3e-4 0.006,0 c -1.6e-4,-6.31571 -2.56518,-12.03862 -6.71133,-16.18482 -4.14637,-4.14642 -9.86953,-6.71155 -16.18562,-6.7116 z"
         id="path4636" />
      <path
         style="fill:#000000;fill-opacity:1;fill-rule:evenodd;stroke:#000000;stroke-width:1.40707231;stroke-linejoin:round;stroke-dasharray:none"
         d="m 368.47157,679.74445 c 0,0 -5.90315,4.50711 -5.85694,4.3971 0.0223,-0.0531 4.30343,6.19924 10.0166,12.92309 l 8.3545,0 c -6.1719,-8.55498 -12.51416,-17.32019 -12.51416,-17.32019 z"
         id="path4642" />
      <path
         style="fill:#000000;fill-opacity:1;fill-rule:evenodd;stroke:#000000;stroke-width:1.40707326;stroke-linejoin:bevel;stroke-dasharray:none"
         d="m 362.78038,684.03711 c 0,0 -9.86583,-14.9698 -12.57571,-15.46319 -1.20202,-0.9279 -4.0127,-8.74614 -2.29035,-11.25341 1.3978,-2.22477 8.11004,-8.02074 14.18477,-1.94577 6.12041,6.42989 -0.46536,10.40517 -1.83271,12.86662 -1.36732,2.46159 4.63344,12.63586 8.43192,11.30504 -2.93612,2.42287 -6.06673,4.26925 -5.91792,4.49071 z m -2.72717,-17.45229 c 7.61317,-6.27268 -3.44885,-16.51743 -9.12301,-10.13365 -5.89237,7.49488 4.43405,14.82698 9.12301,10.13365 z"
         id="path4644" />
      <path
         style="fill:#000000;fill-opacity:1;fill-rule:evenodd;stroke:#000000;stroke-width:1.4070729;stroke-linejoin:bevel;stroke-dasharray:none"
         d="m 366.74351,679.42786 c 0.0856,-0.0832 -1.95671,7.05735 -1.95671,7.05735 0,0 39.7654,10.26686 39.85095,10.18369 -6.18723,-9.95906 -37.9798,-17.15787 -37.89424,-17.24104 z"
         id="path4646" />
      <path
         style="fill:#000000;fill-opacity:1;stroke:#000000;stroke-width:0.87942082;stroke-dasharray:none"
         d="m 369.62961,684.74104 c 1.15751,-1.81285 -1.34503,-4.05461 -2.9053,-2.09063 -1.29688,2.00654 1.51155,4.0275 2.9053,2.09063 z"
         id="path4648"
         sodipodi:nodetypes="ccc" />
      <path
         style="fill:#000000;fill-opacity:1;stroke:#000000;stroke-width:0.87942082;stroke-dasharray:none"
         d="m 369.63671,682.68832 c -0.13937,0.19369 -3.13682,0.68254 -3.13682,0.68254"
         id="path4650" />
      <path
         style="fill:#000000;fill-opacity:1;stroke:#000000;stroke-width:0.87942082;stroke-dasharray:none"
         d="m 369.75718,683.95091 c -0.0697,0.0968 -3.06725,0.58561 -3.06725,0.58561"
         id="path4652"
         sodipodi:nodetypes="cc" />
      <path
         style="fill:#000000;fill-opacity:1;fill-rule:evenodd;stroke-width:1pt"
         d="m 369.53657,682.96025 0.27492,0.80993 -3.10798,0.57909 -0.14355,-0.7882 2.97661,-0.60082 z"
         id="path4654"
         sodipodi:nodetypes="ccccc" />
      <path
         style="fill:#000000;fill-opacity:1;fill-rule:evenodd;stroke:#000000;stroke-width:1.40707326;stroke-linejoin:bevel;stroke-dasharray:none"
         d="m 349.46496,683.44965 c -3.06102,9.3775 -16.63667,2.81815 -12.76447,-4.79467 4.827,-8.22153 15.42247,-1.28387 12.76447,4.79467 z m 17.24361,-3.83125 c 0,0 -17.53809,-3.721 -18.98656,-6.06383 -1.30263,-0.78037 -9.60738,-0.54341 -11.313,1.97529 -1.56104,2.11342 -4.50709,10.47813 3.36609,13.91632 8.22025,3.35116 9.51739,-4.23124 11.30991,-6.4027 1.79268,-2.1715 13.4553,-0.29848 13.6028,3.72368 1.18398,-3.61791 1.76027,-7.20647 2.02076,-7.14876 z"
         id="path4656" />
      <path
         style="fill:#000000;fill-opacity:1;fill-rule:evenodd;stroke:none"
         d="m 60.34365,654.51523 c -2.072706,0.26201 -2.097913,1.60512 -1.912781,2.96925 0.18513,1.36413 0.561582,5.96214 1.020786,8.39696 0.363011,1.76035 2.55867,9.55985 2.466104,10.7421 0.559789,4.20424 -0.567823,9.24471 -0.725045,10.0743 2.678263,-4.28823 5.454764,-4.86822 10.894742,-5.65248 0.430155,-1.22194 0.798335,-2.00448 1.464398,-3.5489 -0.165718,0.064 0.03972,-0.24097 -0.147995,-0.19068 -0.315032,0.038 0.267246,-1.68445 0.267246,-4.32177 10e-7,-2.63731 2.080195,-16.30219 1.802498,-19.17008 0.107069,-2.28977 -2.197145,-2.57556 -3.58563,-1.75708 -1.388489,0.81848 -2.127541,11.10961 -2.405238,12.74656 -0.277696,1.63696 -0.332702,12.29461 -1.149862,12.32509 -1.479192,-0.45801 -1.19136,-4.05783 -1.850199,-6.04773 -0.370263,-2.18261 -2.80761,-12.21786 -2.900176,-13.58198 -0.09257,-1.36413 -0.685183,-3.05286 -3.238848,-2.98356 z m 18.207193,17.25719 c -1.233846,0.0687 -2.752308,1.84601 -2.752306,1.84601 0,0 -2.109727,4.37036 -3.291319,7.51279 1.14759,-0.0731 2.226282,-0.10182 2.809547,-0.13833 1.767922,-0.11068 1.605867,1.84876 1.163886,2.62351 -0.149626,0.26229 0.0859,0.98123 -0.672574,1.50733 2.468984,-1.09796 4.431354,-8.37617 4.431356,-8.37617 0,10e-6 0.535749,-0.47277 -0.348212,-3.68246 -0.276239,-1.00303 -0.779539,-1.32389 -1.340378,-1.29268 z m 2.394554,4.80819 c -0.04043,0.11853 -0.08586,0.16218 -0.08586,0.16218 2e-6,0 -2.391581,8.02923 -4.841577,8.77208 -0.857112,1.06219 -2.720717,2.49913 -4.674627,2.68553 -2.320403,0.22135 -1.917551,0.67734 -1.917551,0.67734 10e-7,0 0.91246,-0.72533 -1.297447,1.48825 -0.886424,0.8879 -0.881386,0.90517 -1.206817,1.2259 6.249146,0.61727 7.192279,5.26587 8.056575,7.32199 0.411225,0.41191 0.468105,1.25716 0.434073,1.62658 0.947072,0.3945 2.501363,0.83608 6.147708,1.61084 3.646343,0.77475 5.18189,-1.23753 5.071398,-3.56178 -0.105963,-2.22886 1.502798,-12.32303 0.08586,-15.21162 -2.115528,2.69575 -5.764011,6.51458 -6.573097,7.05487 -0.994459,0.66407 -4.014491,-1.63768 -3.429651,-3.46781 -3e-6,0 5.391824,-9.57821 6.496779,-9.57821 0.334286,-0.17732 0.851954,-0.25033 1.416694,-0.20989 -0.599185,-0.13146 -1.17696,-0.15825 -1.607495,-0.0668 -2.190486,0.007 -1.570296,0.57566 -2.074963,-0.52948 z m 4.159466,0.87291 c -0.567036,-0.0414 -1.08602,0.0319 -1.421472,0.20989 -1.104951,0 -6.191494,9.18707 -6.191494,9.18707 -0.662971,1.43883 1.657677,3.43068 2.652136,2.76661 0.994457,-0.66407 6.080338,-6.19881 7.627271,-8.63374 1.1602,-2.27104 -0.965344,-3.40576 -2.666441,-3.52983 z m -10.09338,4.00206 c -1.767926,0.11068 -7.243738,0.0994 -9.659305,1.71244 -3.273491,1.85498 -5.411563,5.67248 -5.538001,5.73834 -2.430898,2.21358 0.883364,9.63137 2.098812,11.73427 1.436441,2.76697 7.842297,2.09985 11.820127,1.43577 0.773468,-0.55339 1.98819,-1.65885 0.772744,-2.87632 -0.878155,-2.08908 -2.084667,-6.79275 -8.600358,-7.2886 -9.41e-4,0.003 -0.0088,0.0115 -0.0095,0.0143 l 0.05724,0.0429 c 0,0 -0.07243,0.029 -0.05724,-0.0429 l -0.02385,-0.0191 c -0.03267,-0.002 -0.06246,-0.007 -0.0954,-0.01 -0.0066,-0.0263 -0.0035,-0.0413 -0.0095,-0.0668 l 0.104941,0.0763 c 0.01054,7.6e-4 0.02288,0.004 0.03339,0.005 0.04334,-0.14 0.351281,-0.58277 1.7029,-1.93663 2.20991,-2.21358 0.443613,-1.87939 0.443612,-1.87939 2e-6,0 0.222023,-0.22226 2.542424,-0.44362 2.320401,-0.22135 4.75258,-2.87908 5.194559,-3.65383 0.441983,-0.77476 0.990412,-2.65311 -0.777514,-2.54243 z"
         id="path4660"
         sodipodi:nodetypes="ccccccccccccccccccccccccccccccccccccccccccccccccccccccccccccccccccccc" />
      <path
         style="fill:none;stroke:#000000;stroke-width:4.97845554;stroke-linecap:butt;stroke-linejoin:miter;stroke-miterlimit:4;stroke-opacity:1;stroke-dasharray:14.93536614, 14.93536614;stroke-dashoffset:0"
         d="m 378.44937,698.65699 103.24064,0"
         id="path4662" />
      <path
         transform="matrix(0.09167451,0,0,0.09167451,195.63671,457.2518)"
         d="m -290.92395,2373.6416 c 0,145.0519 -117.58778,262.6397 -262.63965,262.6397 -145.05187,0 -262.63965,-117.5878 -262.63965,-262.6397 0,-145.0519 117.58778,-262.6396 262.63965,-262.6396 145.05187,0 262.63965,117.5877 262.63965,262.6396 z"
         sodipodi:ry="262.63965"
         sodipodi:rx="262.63965"
         sodipodi:cy="2373.6416"
         sodipodi:cx="-553.5636"
         id="path5499"
         style="fill:none;stroke:#000000;stroke-width:55.29999924;stroke-miterlimit:4;stroke-opacity:1;stroke-dasharray:none"
         sodipodi:type="arc" />
      <path
         id="path5501"
         d="m 127.47925,656.70361 33.70831,33.70831"
         style="fill:none;stroke:#000000;stroke-width:5.04209805;stroke-linecap:butt;stroke-linejoin:miter;stroke-miterlimit:4;stroke-opacity:1;stroke-dasharray:none" />
    </g>
  </g>
</svg>
